<svg width="10" height="10" viewBox="0 0 10 10" fill="none" xmlns="http://www.w3.org/2000/svg">
<path d="M9.97384 3.62089C9.90799 3.4184 9.7284 3.27504 9.51675 3.25589L6.63005 2.99382L5.48921 0.322881C5.40498 0.12665 5.21333 0 5.00001 0C4.78668 0 4.59496 0.12665 4.51126 0.322881L3.37042 2.99382L0.483259 3.25589C0.271617 3.27543 0.0923994 3.41878 0.0261753 3.62089C-0.0396674 3.82338 0.0211398 4.04547 0.181207 4.18585L2.36332 6.09926L1.71993 8.93301C1.67285 9.14137 1.75373 9.35683 1.92661 9.4818C2.01954 9.54932 2.12872 9.58305 2.23828 9.58305C2.33242 9.58305 2.42665 9.55802 2.5108 9.50767L5.00001 8.0193L7.48875 9.50767C7.67133 9.61677 7.9009 9.60678 8.0734 9.4818C8.24629 9.35683 8.32716 9.14137 8.28009 8.93301L7.63669 6.09926L9.8188 4.18585C9.9788 4.04547 10.0397 3.82383 9.97384 3.62089Z" fill="#696969"/>
</svg>
