<svg width="23" height="24" viewBox="0 0 23 24" fill="none" xmlns="http://www.w3.org/2000/svg">
<path d="M9.16094 18.1351C11.1813 18.1351 13.018 17.3779 14.4506 16.0966L20.8791 22.8915C21.026 23.0468 21.2097 23.1245 21.4117 23.1245C21.6137 23.1245 21.7974 23.0468 21.9443 22.8915C22.2382 22.5809 22.2382 22.0761 21.9443 21.7655L15.5159 14.9706C16.7098 13.4563 17.4444 11.4955 17.4444 9.37943C17.4444 4.54538 13.7343 0.623779 9.16094 0.623779C4.60593 0.623779 0.877441 4.56479 0.877441 9.37943C0.877441 14.2135 4.60593 18.1351 9.16094 18.1351ZM9.16094 2.21572C12.9078 2.21572 15.9383 5.43842 15.9383 9.37943C15.9383 13.3399 12.9078 16.5431 9.16094 16.5431C5.41408 16.5431 2.38353 13.3204 2.38353 9.37943C2.38353 5.43842 5.43245 2.21572 9.16094 2.21572Z" fill="white"/>
</svg>
