<svg width="141" height="108" viewBox="0 0 141 108" fill="none" xmlns="http://www.w3.org/2000/svg">
<mask id="mask0" mask-type="alpha" maskUnits="userSpaceOnUse" x="0" y="0" width="140" height="107">
<rect width="140" height="107" fill="#C4C4C4"/>
</mask>
<g mask="url(#mask0)">
<path d="M126 66.0001C126 86.2118 133.555 104.451 120 117.381C107.258 129.536 90.0006 137 71.0001 137C51.9996 137 42.7424 119.155 30.0001 107C16.4456 94.0698 0.00012207 86.2118 0.00012207 66.0001C0.00012207 45.7883 16.4456 36.9303 30.0001 24.0001C42.7424 11.8447 58.9996 0 78.0001 0C97.0006 0 107.258 2.46364 120 14.619C133.555 27.5492 126 45.7883 126 66.0001Z" fill="url(#paint0_linear)"/>
</g>
<g opacity="0.43">
<path opacity="0.43" d="M14.688 101.875C10.188 90.3746 14.988 75.9747 25.488 69.5746C31.888 65.6746 39.488 64.5746 46.388 61.6746C56.888 57.0746 64.888 48.2746 74.288 41.6746C81.288 36.7746 89.188 33.1746 97.688 31.9746C106.088 30.7746 114.988 32.0746 122.388 36.3746C130.188 40.9746 135.788 48.7746 138.488 57.4746C141.188 66.0746 140.988 75.4746 138.888 84.2746C138.088 87.6746 136.988 90.9746 134.988 93.7746C132.988 96.5746 130.088 98.8746 126.688 99.5746" fill="#EDE6F5"/>
</g>
<path d="M69.688 44.8747C66.388 46.0747 67.488 42.2747 67.388 40.6747C67.288 39.0747 67.388 37.3747 66.688 35.8747C66.188 34.6747 65.188 33.6747 65.188 32.3747C65.188 31.3747 65.788 30.5748 65.988 29.5748C66.288 28.2748 65.988 26.8748 66.188 25.5748C66.588 23.0748 69.288 21.0747 71.788 21.3747C73.088 21.5747 74.288 22.1748 75.588 21.9748C76.988 21.7748 78.088 20.6747 79.288 19.8747C80.988 18.8747 83.188 18.6748 84.988 19.5748C86.788 20.4748 87.988 22.4748 87.688 24.4748C87.488 26.4748 85.788 28.1748 83.788 28.2748C82.588 28.3748 81.488 27.8748 80.388 27.5748C79.288 27.2748 77.988 27.1747 76.988 27.8747C75.788 28.6747 75.288 30.5748 73.788 30.7748C72.988 30.8748 72.288 30.3748 71.588 30.0748C70.888 29.7748 69.888 29.6747 69.488 30.3747C69.188 30.8747 69.388 31.5748 69.488 32.2748C69.588 33.4748 69.388 34.5748 68.288 35.0748C67.888 38.2748 68.788 41.3747 69.788 44.3747" fill="#552E3B"/>
<path d="M42.288 100.475L33.388 50.3748H62.188L72.788 99.5748L42.288 100.475Z" fill="#B8ABD6"/>
<path d="M44.488 100.475L35.088 50.3748H63.888L74.588 99.5748L44.488 100.475Z" fill="#DDD2F3"/>
<path opacity="0.44" d="M64.188 50.3748C64.188 50.3748 54.188 54.7748 51.488 59.4748C49.088 63.5748 37.588 87.4748 41.788 90.8748C46.088 94.2748 74.488 93.1748 74.488 93.1748L76.288 85.5748L53.988 81.7748L67.688 69.7748L64.188 50.3748Z" fill="#B8ABD6"/>
<path d="M89.188 62.5748C88.988 62.0748 87.888 51.4748 76.788 51.7748C66.288 51.9748 60.488 52.6748 56.788 60.7748L60.688 76.1748L61.488 99.9748L91.688 98.9748L89.188 62.5748Z" fill="#A869C5"/>
<path d="M61.288 54.8748C61.288 54.8748 56.988 57.1748 54.188 61.8748C51.788 65.9748 40.288 89.8748 44.488 93.2748C48.788 96.6748 77.188 95.5748 77.188 95.5748L78.988 87.9748L56.688 84.1748L60.588 76.2748L61.288 54.8748Z" fill="#A869C5"/>
<path d="M83.588 53.4746C83.588 53.4746 94.288 60.6746 105.388 79.2746L100.888 90.2746L89.188 75.3746L83.588 53.4746Z" fill="#A869C5"/>
<path d="M70.188 100.275H94.688L95.888 98.1748L70.188 98.9748V100.275Z" fill="#B8ABD6"/>
<path d="M78.488 90.5747H88.488C88.488 90.5747 94.588 96.0747 93.588 96.2747C92.488 96.5747 88.788 92.8747 88.788 92.8747L91.688 99.1747C91.688 99.1747 87.288 98.5747 85.888 97.3747C84.488 96.1747 83.088 95.2747 83.088 95.2747L77.388 95.7747L78.488 90.5747Z" fill="#F9C8C7"/>
<path opacity="0.14" d="M58.788 106.275C58.788 106.775 56.288 107.275 53.188 107.275C50.088 107.275 47.588 106.875 47.588 106.275C47.588 105.775 50.088 105.275 53.188 105.275C56.288 105.275 58.788 105.675 58.788 106.275Z" fill="#B8ABD6"/>
<path d="M55.288 95.9748C55.288 95.9748 50.488 94.1748 45.988 95.9748V96.9748C45.988 96.9748 44.388 96.8748 44.388 98.3748C44.388 99.9748 44.888 101.975 46.988 102.875L47.888 105.775C47.888 105.775 51.788 106.775 53.788 105.775C53.788 105.775 54.288 104.275 54.588 102.675C54.888 101.575 55.288 95.9748 55.288 95.9748ZM45.088 98.9748C44.988 97.6748 46.088 98.0748 46.088 98.0748L46.688 101.775C46.588 101.875 45.288 101.475 45.088 98.9748Z" fill="#FAC28C"/>
<path d="M54.588 96.0748C54.588 96.0748 50.388 95.0748 46.588 96.0748C46.588 96.0748 50.488 99.2748 54.588 96.0748Z" fill="#DB9D6A"/>
<path d="M54.988 100.375C54.988 100.375 54.888 100.475 54.688 100.575C54.488 100.675 54.188 100.775 53.788 100.875C52.988 101.075 51.988 101.375 50.688 101.375C49.488 101.375 48.388 101.275 47.588 101.075C47.188 100.975 46.888 100.875 46.688 100.775C46.488 100.675 46.388 100.675 46.388 100.675C46.388 100.675 46.888 100.775 47.688 100.975C48.488 101.175 49.588 101.275 50.788 101.175C51.988 101.175 53.088 100.975 53.788 100.775C54.588 100.575 54.988 100.375 54.988 100.375Z" fill="#B28560"/>
<path d="M54.788 99.4749C54.788 99.4749 54.688 99.5749 54.488 99.6749C54.288 99.7749 53.988 99.8749 53.588 100.075C52.888 100.375 51.788 100.575 50.588 100.675C49.388 100.675 48.288 100.575 47.488 100.375C47.088 100.275 46.788 100.175 46.588 100.075C46.388 99.9749 46.288 99.9749 46.288 99.9749C46.288 99.9749 46.788 100.075 47.488 100.275C48.288 100.475 49.288 100.575 50.488 100.575C51.688 100.575 52.688 100.275 53.488 100.075C54.388 99.6749 54.788 99.4749 54.788 99.4749Z" fill="#B28560"/>
<g opacity="0.07">
<path opacity="0.07" d="M46.788 96.0749C46.388 95.6749 46.588 94.9749 46.988 94.5749C47.388 94.1749 47.988 94.0749 48.488 93.7749C48.988 93.5749 49.488 93.1749 49.588 92.5749C49.788 91.5749 48.388 90.5749 48.788 89.5749C49.088 88.6749 50.588 88.6749 51.188 87.8749C51.788 86.9749 50.988 85.6749 51.388 84.6749C51.688 83.9749 52.488 83.5749 53.188 83.6749C53.888 83.7749 54.588 84.2749 54.988 84.8749C55.388 85.4749 55.688 86.1749 55.888 86.9749C56.188 87.8749 56.388 88.9749 55.988 89.7749C55.788 90.1749 55.288 90.6749 55.488 91.0749C55.588 91.3749 55.888 91.4749 56.088 91.6749C56.588 92.1749 56.588 93.0749 56.288 93.7749C55.588 95.6749 53.788 97.0749 51.788 97.3749C49.788 97.5749 47.688 96.5749 46.688 94.8749" fill="#F9FAFD"/>
</g>
<path d="M85.388 63.0747C85.388 63.0747 85.088 63.5747 84.688 64.1747C84.288 64.7747 83.888 65.1747 83.888 65.1747C83.888 65.1747 84.188 64.6747 84.588 64.0747C84.988 63.4747 85.388 63.0747 85.388 63.0747Z" fill="#A869C5"/>
<path d="M69.688 52.0748C69.688 52.0748 75.888 68.0748 80.188 73.4748C80.188 73.4748 81.988 57.7748 80.188 52.0748C80.088 52.0748 71.888 51.0748 69.688 52.0748Z" fill="#F9FAFD"/>
<path d="M68.688 26.1746L68.288 35.6746C68.288 35.6746 65.388 35.6746 65.388 38.2746C65.388 41.6746 68.588 41.0746 68.588 41.0746C68.588 41.0746 67.888 47.4746 76.688 47.9746C86.988 48.5746 84.788 32.5746 84.388 24.9746L68.688 26.1746Z" fill="#F9C8C7"/>
<path d="M80.088 40.5747L79.588 52.0747C79.488 55.2747 75.988 57.3747 73.088 55.8747C73.088 55.8747 72.988 55.8747 72.988 55.7747C71.388 54.9747 70.488 53.3747 70.488 51.6747C70.588 47.5747 70.688 40.5747 70.688 40.5747H80.088Z" fill="#F9C8C7"/>
<path d="M82.588 78.6746V78.7746C82.588 78.7746 82.488 78.8746 82.488 78.7746C82.488 78.7746 82.388 78.6746 82.488 78.6746C82.488 78.5746 82.488 78.5746 82.588 78.6746Z" fill="#452775"/>
<path d="M82.988 78.9746C82.988 78.9746 83.088 79.0746 82.988 79.0746C82.988 79.0746 82.888 79.1746 82.888 79.0746C82.888 79.0746 82.788 78.9746 82.888 78.9746H82.988Z" fill="#452775"/>
<path d="M82.988 85.3748V85.4748C82.988 85.5748 82.888 85.5748 82.888 85.4748V85.3748H82.988Z" fill="#452775"/>
<path d="M78.888 88.2749C78.888 88.2749 78.588 90.2749 78.088 92.6749C77.588 95.0749 77.188 97.0749 77.188 97.0749C77.188 97.0749 77.488 95.0749 77.988 92.6749C78.388 90.1749 78.788 88.2749 78.888 88.2749Z" fill="#452775"/>
<path d="M79.088 88.2748C79.088 88.2748 75.088 87.5748 70.088 86.6748C65.088 85.6748 61.088 84.8748 61.088 84.8748C61.088 84.8748 65.088 85.5748 70.088 86.4748C75.188 87.4748 79.188 88.2748 79.088 88.2748Z" fill="#452775"/>
<path d="M77.088 96.8748C77.088 96.8748 73.588 96.6748 69.288 96.3748C64.988 96.0748 61.488 95.6748 61.488 95.6748C61.488 95.6748 64.988 95.8748 69.288 96.1748C73.688 96.5748 77.188 96.8748 77.088 96.8748Z" fill="#452775"/>
<path d="M102.788 86.2749C102.788 86.2749 99.688 82.6749 95.988 78.0749C92.288 73.4749 89.288 69.7749 89.288 69.7749C89.288 69.7749 92.388 73.3749 96.088 77.9749C99.788 82.5749 102.788 86.2749 102.788 86.2749Z" fill="#452775"/>
<path d="M63.688 85.2748C63.688 85.2748 63.388 82.4748 63.188 78.9748C62.888 75.4748 62.788 72.6748 62.788 72.6748C62.788 72.6748 63.088 75.4748 63.288 78.9748C63.488 82.4748 63.688 85.2748 63.688 85.2748Z" fill="#452775"/>
<path d="M65.088 99.8746C65.088 99.8746 64.688 99.0746 64.488 97.9746C64.288 96.8746 64.488 95.9746 64.488 95.9746C64.588 95.9746 64.488 96.8746 64.588 97.9746C64.788 98.9746 65.088 99.8746 65.088 99.8746Z" fill="#452775"/>
<path d="M86.388 67.3747C86.388 67.3747 86.088 67.1747 85.788 66.7747C85.488 66.4747 85.288 66.1747 85.388 66.0747C85.388 66.0747 85.688 66.2747 85.988 66.6747C86.188 67.0747 86.388 67.3747 86.388 67.3747Z" fill="#A869C5"/>
<path d="M70.288 73.1748C70.288 73.1748 70.088 73.5748 69.788 73.9748C69.488 74.3748 69.188 74.7748 69.188 74.7748C69.188 74.7748 69.388 74.3748 69.688 73.8748C69.988 73.4748 70.288 73.1748 70.288 73.1748Z" fill="#A869C5"/>
<path d="M66.088 76.5746C66.088 76.5746 65.688 76.2746 65.188 75.8746C64.688 75.4746 64.388 75.0746 64.388 74.9746C64.388 74.9746 64.788 75.2746 65.288 75.6746C65.788 76.1746 66.088 76.5746 66.088 76.5746Z" fill="#A869C5"/>
<path d="M66.888 72.1749C66.888 72.1749 66.588 71.8749 66.388 71.2749C66.188 70.6749 66.288 70.2749 66.288 70.2749C66.388 70.2749 66.388 70.7749 66.588 71.2749C66.688 71.7749 66.988 72.1749 66.888 72.1749Z" fill="#A869C5"/>
<path d="M69.188 68.3749C69.188 68.3749 68.788 68.2749 68.288 67.9749C67.888 67.6749 67.588 67.2749 67.588 67.2749C67.588 67.2749 67.888 67.5749 68.388 67.8749C68.788 68.1749 69.188 68.3749 69.188 68.3749Z" fill="#A869C5"/>
<path d="M75.588 72.3746C75.588 72.3746 75.488 72.7746 75.188 73.1746C74.988 73.5746 74.688 73.8746 74.688 73.8746C74.688 73.8746 74.788 73.4746 75.088 73.0746C75.288 72.5746 75.588 72.2746 75.588 72.3746Z" fill="#A869C5"/>
<path d="M73.088 71.0748C73.088 71.0748 72.888 70.5748 72.888 69.9748C72.888 69.3748 72.888 68.8748 72.988 68.8748C72.988 68.8748 73.088 69.3748 73.088 69.9748C73.088 70.4748 73.088 70.9748 73.088 71.0748Z" fill="#A869C5"/>
<path d="M73.088 78.5749C73.088 78.5749 72.788 78.0749 72.688 77.4749C72.588 76.7749 72.688 76.2749 72.788 76.2749C72.888 76.2749 72.788 76.7749 72.888 77.4749C72.988 78.0749 73.088 78.5749 73.088 78.5749Z" fill="#A869C5"/>
<path d="M70.588 80.5749C70.588 80.5749 70.188 80.2749 69.788 79.7749C69.388 79.2749 69.288 78.7749 69.288 78.7749C69.288 78.7749 69.588 79.1749 69.888 79.6749C70.288 80.1749 70.588 80.4749 70.588 80.5749Z" fill="#A869C5"/>
<path d="M66.988 81.6747C66.988 81.6747 66.688 81.9747 66.388 82.2747C65.988 82.5747 65.688 82.7747 65.688 82.6747C65.688 82.6747 65.988 82.3747 66.288 82.0747C66.688 81.7747 66.988 81.5747 66.988 81.6747Z" fill="#A869C5"/>
<path d="M64.888 79.7749C64.888 79.7749 64.588 79.6749 64.388 79.3749C64.188 79.0749 64.088 78.7749 64.188 78.7749C64.188 78.7749 64.388 78.9749 64.488 79.2749C64.788 79.5749 64.888 79.7749 64.888 79.7749Z" fill="#A869C5"/>
<path d="M70.388 84.3748C70.388 84.3748 70.388 84.7748 70.188 85.2748C70.088 85.7748 69.888 86.1748 69.888 86.0748C69.888 86.0748 69.888 85.6748 70.088 85.1748C70.188 84.7748 70.388 84.3748 70.388 84.3748Z" fill="#A869C5"/>
<path d="M73.788 85.3747C73.788 85.3747 73.388 85.0747 73.188 84.5747C72.888 84.0747 72.888 83.5747 72.888 83.5747C72.888 83.5747 73.088 83.9747 73.288 84.4747C73.588 84.9747 73.888 85.2747 73.788 85.3747Z" fill="#A869C5"/>
<path d="M78.088 85.3749C78.088 85.3749 77.688 85.1749 77.188 84.8749C76.688 84.5749 76.388 84.2749 76.388 84.2749C76.388 84.2749 76.788 84.4749 77.288 84.7749C77.788 85.0749 78.188 85.3749 78.088 85.3749Z" fill="#A869C5"/>
<path d="M78.588 80.4747C78.588 80.4747 78.288 80.8747 77.888 81.1747C77.488 81.5747 77.088 81.7747 77.088 81.7747C77.088 81.7747 77.388 81.3747 77.788 81.0747C78.188 80.6747 78.588 80.3747 78.588 80.4747Z" fill="#A869C5"/>
<path d="M74.888 80.3748C74.888 80.3748 74.888 80.5748 74.688 80.7748C74.588 80.9748 74.388 81.0748 74.388 81.0748C74.388 81.0748 74.388 80.8748 74.588 80.6748C74.688 80.4748 74.888 80.3748 74.888 80.3748Z" fill="#A869C5"/>
<path d="M77.688 77.5748C77.688 77.5748 77.288 77.2748 76.888 76.8748C76.388 76.4748 75.988 76.1748 76.088 76.1748C76.088 76.1748 76.588 76.3748 77.088 76.7748C77.388 77.1748 77.688 77.5748 77.688 77.5748Z" fill="#A869C5"/>
<path d="M69.288 65.7746C69.288 65.7746 69.588 65.2746 69.888 64.6746C70.188 64.0746 70.388 63.4746 70.388 63.4746C70.388 63.4746 70.388 64.0746 70.088 64.7746C69.688 65.3746 69.288 65.7746 69.288 65.7746Z" fill="#A869C5"/>
<path d="M67.588 63.8746C67.588 63.8746 67.388 63.3746 67.388 62.6746C67.388 61.9746 67.388 61.4746 67.488 61.4746C67.488 61.4746 67.588 61.9746 67.588 62.6746C67.588 63.3746 67.688 63.8746 67.588 63.8746Z" fill="#A869C5"/>
<path d="M67.688 56.9746C67.688 56.9746 67.288 56.9746 66.888 56.6746C66.488 56.3746 66.288 56.0746 66.388 55.9746C66.388 55.9746 66.688 56.2746 66.988 56.4746C67.388 56.7746 67.688 56.8746 67.688 56.9746Z" fill="#A869C5"/>
<path d="M66.488 53.5747C66.488 53.5747 66.288 53.7747 65.888 53.9747C65.588 54.1747 65.288 54.2747 65.288 54.1747C65.288 54.1747 65.488 53.9747 65.888 53.7747C66.188 53.6747 66.388 53.5747 66.488 53.5747Z" fill="#A869C5"/>
<path d="M70.688 58.8749C70.688 58.8749 70.688 58.4749 70.688 58.0749C70.788 57.6749 70.788 57.2749 70.888 57.2749C70.888 57.2749 70.888 57.6749 70.888 58.0749C70.788 58.4749 70.688 58.8749 70.688 58.8749Z" fill="#A869C5"/>
<path d="M73.488 63.7748C73.488 63.7748 73.288 63.6748 73.088 63.5748C72.888 63.3748 72.688 63.2748 72.788 63.1748C72.788 63.1748 72.988 63.2748 73.188 63.3748C73.288 63.5748 73.488 63.7748 73.488 63.7748Z" fill="#A869C5"/>
<path d="M81.988 61.9746C81.988 61.9746 81.988 62.3746 81.888 62.8746C81.788 63.3746 81.688 63.7746 81.588 63.7746C81.588 63.7746 81.588 63.3746 81.688 62.8746C81.888 62.3746 81.988 61.9746 81.988 61.9746Z" fill="#A869C5"/>
<path d="M82.288 57.5748C82.288 57.5748 81.988 57.4748 81.788 57.2748C81.588 56.9748 81.488 56.7748 81.588 56.6748C81.588 56.6748 81.788 56.8748 81.988 57.1748C82.088 57.3748 82.288 57.5748 82.288 57.5748Z" fill="#A869C5"/>
<path d="M84.588 58.6747C84.588 58.6747 84.488 58.9747 84.288 59.3747C84.088 59.7747 83.788 60.0747 83.788 59.9747C83.788 59.9747 83.888 59.6747 84.088 59.2747C84.288 58.8747 84.588 58.5747 84.588 58.6747Z" fill="#A869C5"/>
<path d="M86.488 60.7749C86.488 60.7749 86.388 60.2749 86.488 59.7749C86.488 59.2749 86.588 58.7749 86.588 58.7749C86.588 58.7749 86.688 59.2749 86.588 59.7749C86.588 60.3749 86.488 60.8749 86.488 60.7749Z" fill="#A869C5"/>
<path d="M85.088 55.9749C85.088 55.9749 84.688 55.6749 84.288 55.1749C83.888 54.6749 83.588 54.2749 83.688 54.2749C83.688 54.2749 84.088 54.5749 84.488 55.0749C84.788 55.5749 85.088 55.9749 85.088 55.9749Z" fill="#A869C5"/>
<path d="M61.888 63.0748C61.888 63.0748 61.888 62.5748 61.988 61.8748C62.088 61.1748 62.188 60.6748 62.288 60.6748C62.288 60.6748 62.288 61.1748 62.188 61.8748C62.088 62.5748 61.888 63.0748 61.888 63.0748Z" fill="#A869C5"/>
<path d="M59.988 59.0748C59.988 59.0748 59.588 59.1748 59.088 59.2748C58.588 59.3748 58.188 59.5747 58.188 59.4747C58.188 59.4747 58.588 59.1748 59.088 59.0748C59.588 58.9748 59.988 58.9748 59.988 59.0748Z" fill="#A869C5"/>
<path d="M62.588 57.3749C62.588 57.3749 62.288 57.1749 61.988 56.8749C61.688 56.5749 61.488 56.2749 61.488 56.2749C61.488 56.2749 61.788 56.4749 62.088 56.7749C62.388 57.0749 62.588 57.3749 62.588 57.3749Z" fill="#A869C5"/>
<path d="M64.688 62.1748C64.688 62.1748 64.488 61.7748 64.488 61.1748C64.488 60.5748 64.588 60.1748 64.688 60.1748C64.688 60.1748 64.688 60.6748 64.688 61.1748C64.688 61.6748 64.788 62.1748 64.688 62.1748Z" fill="#A869C5"/>
<path d="M62.088 68.6749C62.088 68.6749 62.188 68.2749 62.388 67.7749C62.588 67.2749 62.788 66.8749 62.888 66.9749C62.888 66.9749 62.788 67.3749 62.588 67.8749C62.288 68.3749 62.088 68.7749 62.088 68.6749Z" fill="#A869C5"/>
<path d="M59.688 65.8746C59.688 65.8746 59.688 65.4746 59.988 65.0746C60.288 64.6746 60.588 64.4746 60.588 64.4746C60.588 64.4746 60.388 64.7746 60.088 65.1746C59.888 65.5746 59.788 65.8746 59.688 65.8746Z" fill="#A869C5"/>
<path d="M56.588 65.1747C56.588 65.1747 56.688 64.6747 56.988 64.0747C57.188 63.4747 57.488 63.0747 57.488 63.0747C57.488 63.0747 57.388 63.5747 57.088 64.1747C56.888 64.7747 56.588 65.1747 56.588 65.1747Z" fill="#A869C5"/>
<path d="M54.588 64.3748C54.588 64.3748 54.588 63.8748 54.588 63.3748C54.688 62.7748 54.788 62.3748 54.788 62.3748C54.788 62.3748 54.788 62.8748 54.788 63.3748C54.688 63.9748 54.588 64.3748 54.588 64.3748Z" fill="#A869C5"/>
<path d="M53.188 69.7749C53.188 69.7749 52.888 69.4749 52.688 69.0749C52.488 68.6749 52.288 68.2749 52.288 68.2749C52.288 68.2749 52.588 68.5749 52.788 68.9749C52.988 69.3749 53.188 69.7749 53.188 69.7749Z" fill="#A869C5"/>
<path d="M55.588 68.0749C55.588 68.0749 55.388 67.6749 55.288 67.1749C55.188 66.6749 55.088 66.2749 55.088 66.2749C55.088 66.2749 55.288 66.6749 55.388 67.1749C55.588 67.6749 55.688 68.0749 55.588 68.0749Z" fill="#A869C5"/>
<path d="M58.788 69.9746C58.788 69.9746 58.388 70.2746 57.788 70.5746C57.288 70.8746 56.788 71.1746 56.788 71.1746C56.788 71.1746 57.188 70.7746 57.688 70.4746C58.288 70.1746 58.788 69.9746 58.788 69.9746Z" fill="#A869C5"/>
<path d="M59.588 74.9746C59.588 74.9746 59.788 74.5746 60.088 73.9746C60.388 73.4746 60.588 72.9746 60.588 72.9746C60.588 72.9746 60.488 73.4746 60.188 73.9746C59.988 74.5746 59.588 74.9746 59.588 74.9746Z" fill="#A869C5"/>
<path d="M57.288 75.6749C57.288 75.6749 57.188 75.1749 57.288 74.4749C57.288 73.7749 57.388 73.2749 57.488 73.2749C57.488 73.2749 57.588 73.7749 57.488 74.4749C57.388 75.1749 57.288 75.6749 57.288 75.6749Z" fill="#A869C5"/>
<path d="M54.988 74.3747C54.988 74.3747 54.388 74.1747 53.888 73.6747C53.388 73.1747 53.188 72.5747 53.188 72.5747C53.188 72.5747 53.488 73.0747 53.988 73.5747C54.488 74.0747 55.088 74.2747 54.988 74.3747Z" fill="#A869C5"/>
<path d="M51.088 73.8748C51.088 73.8748 51.088 73.3748 51.188 72.8748C51.288 72.3748 51.388 71.8748 51.488 71.8748C51.488 71.8748 51.488 72.3748 51.388 72.8748C51.288 73.4748 51.188 73.9748 51.088 73.8748Z" fill="#A869C5"/>
<path d="M57.388 78.3748C57.388 78.3748 57.088 78.6748 56.788 78.9748C56.488 79.2748 56.188 79.5748 56.188 79.5748C56.188 79.5748 56.388 79.1748 56.688 78.8748C56.988 78.5748 57.388 78.3748 57.388 78.3748Z" fill="#A869C5"/>
<path d="M52.888 79.9749C52.888 79.9749 52.788 79.4749 52.788 78.8749C52.788 78.2749 52.788 77.7749 52.888 77.7749C52.888 77.7749 52.988 78.2749 52.988 78.8749C52.888 79.4749 52.888 79.9749 52.888 79.9749Z" fill="#A869C5"/>
<path d="M50.688 81.2748C50.688 81.2748 50.188 81.2748 49.588 80.9748C48.988 80.7748 48.588 80.4748 48.688 80.3748C48.688 80.3748 49.188 80.5748 49.688 80.7748C50.288 81.0748 50.688 81.2748 50.688 81.2748Z" fill="#A869C5"/>
<path d="M49.488 77.9746C49.488 77.9746 49.388 77.5746 49.288 76.9746C49.188 76.4746 49.188 75.9746 49.288 75.9746C49.288 75.9746 49.388 76.3746 49.488 76.9746C49.588 77.4746 49.588 77.9746 49.488 77.9746Z" fill="#A869C5"/>
<path d="M53.388 83.4746C53.388 83.4746 52.988 83.6746 52.488 83.6746C51.988 83.7746 51.588 83.7746 51.588 83.7746C51.588 83.7746 51.988 83.5746 52.488 83.5746C52.888 83.4746 53.388 83.4746 53.388 83.4746Z" fill="#A869C5"/>
<path d="M47.388 84.9746C47.388 84.9746 47.288 84.5746 47.188 83.9746C47.088 83.4746 47.088 82.9746 47.188 82.9746C47.188 82.9746 47.288 83.3746 47.388 83.9746C47.388 84.4746 47.488 84.9746 47.388 84.9746Z" fill="#A869C5"/>
<path d="M45.388 88.4746C45.388 88.4746 45.188 88.0746 45.088 87.4746C44.988 86.8746 44.888 86.4746 44.988 86.4746C44.988 86.4746 45.188 86.8746 45.288 87.4746C45.388 87.9746 45.388 88.3746 45.388 88.4746Z" fill="#A869C5"/>
<path d="M47.088 90.1748C47.088 90.1748 46.788 90.4748 46.288 90.6748C45.888 90.8748 45.488 91.0748 45.488 90.9748C45.488 90.9748 45.788 90.6748 46.288 90.4748C46.688 90.2748 47.088 90.0748 47.088 90.1748Z" fill="#A869C5"/>
<path d="M49.188 89.3748C49.188 89.3748 48.788 89.0748 48.488 88.4748C48.188 87.8748 48.088 87.3748 48.088 87.3748C48.088 87.3748 48.288 87.8748 48.588 88.3748C48.888 88.9748 49.188 89.3748 49.188 89.3748Z" fill="#A869C5"/>
<path d="M51.988 88.1748C51.988 88.1748 51.788 87.8748 51.588 87.4748C51.388 87.0748 51.288 86.7748 51.388 86.6748C51.388 86.6748 51.588 86.9748 51.788 87.3748C51.888 87.7748 51.988 88.1748 51.988 88.1748Z" fill="#A869C5"/>
<path d="M50.588 91.1748C50.588 91.1748 50.288 91.5748 49.788 91.9748C49.288 92.3748 48.888 92.6748 48.888 92.6748C48.888 92.6748 49.188 92.2748 49.688 91.8748C50.188 91.4748 50.588 91.1748 50.588 91.1748Z" fill="#A869C5"/>
<path d="M54.688 92.4749C54.688 92.4749 54.188 92.0749 53.788 91.4749C53.388 90.8749 53.088 90.2749 53.188 90.2749C53.188 90.2749 53.488 90.7749 53.988 91.3749C54.288 91.9749 54.688 92.4749 54.688 92.4749Z" fill="#A869C5"/>
<path d="M53.588 94.0747C53.588 94.0747 53.188 94.1747 52.688 94.2747C52.188 94.2747 51.788 94.2747 51.788 94.2747C51.788 94.2747 52.188 94.1747 52.688 94.0747C53.188 93.9747 53.588 94.0747 53.588 94.0747Z" fill="#A869C5"/>
<path d="M56.288 87.6748C56.288 87.6748 55.988 87.0748 55.788 86.2748C55.588 85.4748 55.388 84.8748 55.488 84.8748C55.488 84.8748 55.788 85.4748 55.988 86.2748C56.088 86.9748 56.288 87.6748 56.288 87.6748Z" fill="#A869C5"/>
<path d="M60.288 86.1748C60.288 86.1748 59.788 86.3748 59.188 86.3748C58.588 86.4748 58.088 86.4748 58.088 86.4748C58.088 86.4748 58.588 86.2748 59.188 86.2748C59.788 86.0748 60.288 86.0748 60.288 86.1748Z" fill="#A869C5"/>
<path d="M58.188 90.3747C58.188 90.3747 57.888 90.4747 57.488 90.6747C57.088 90.8747 56.788 91.0747 56.788 90.9747C56.788 90.9747 56.988 90.6747 57.388 90.4747C57.788 90.3747 58.188 90.2747 58.188 90.3747Z" fill="#A869C5"/>
<path d="M59.888 94.0748C59.888 94.0748 59.488 93.7748 58.988 93.2748C58.488 92.7748 58.188 92.3748 58.188 92.3748C58.188 92.3748 58.588 92.6748 59.088 93.1748C59.588 93.6748 59.888 94.0748 59.888 94.0748Z" fill="#A869C5"/>
<path d="M61.888 90.9746C61.888 90.9746 61.888 90.4746 61.988 89.9746C62.088 89.3746 62.088 88.9746 62.088 88.9746C62.088 88.9746 62.188 89.4746 62.188 89.9746C62.088 90.5746 61.888 90.9746 61.888 90.9746Z" fill="#A869C5"/>
<path d="M64.488 93.2749C64.488 93.2749 63.988 93.5749 63.388 93.8749C62.788 94.1749 62.288 94.2749 62.288 94.2749C62.288 94.2749 62.788 93.9749 63.388 93.6749C63.988 93.3749 64.488 93.2749 64.488 93.2749Z" fill="#A869C5"/>
<path d="M66.088 88.5749C66.088 88.5749 65.688 88.0749 65.388 87.4749C64.988 86.8749 64.788 86.2749 64.788 86.2749C64.788 86.2749 65.188 86.7749 65.488 87.3749C65.888 88.0749 66.088 88.5749 66.088 88.5749Z" fill="#A869C5"/>
<path d="M67.188 90.4748C67.188 90.4748 66.688 90.4748 66.088 90.5748C65.488 90.6748 64.988 90.7748 64.988 90.6748C64.988 90.6748 65.388 90.4748 66.088 90.3748C66.688 90.3748 67.188 90.4748 67.188 90.4748Z" fill="#A869C5"/>
<path d="M70.988 89.4747C70.988 89.4747 70.688 88.9747 70.288 88.4747C69.888 87.9747 69.488 87.5747 69.488 87.5747C69.488 87.5747 69.988 87.8747 70.388 88.3747C70.788 88.8747 70.988 89.4747 70.988 89.4747Z" fill="#A869C5"/>
<path d="M70.088 92.6747C70.088 92.6747 69.788 92.8747 69.288 93.0747C68.788 93.2747 68.388 93.3747 68.388 93.2747C68.388 93.2747 68.688 93.0747 69.188 92.8747C69.688 92.6747 69.988 92.5747 70.088 92.6747Z" fill="#A869C5"/>
<path d="M76.088 94.3746C76.088 94.3746 75.988 93.9746 75.888 93.4746C75.788 92.9746 75.788 92.4746 75.888 92.4746C75.888 92.4746 75.988 92.8746 76.088 93.4746C76.088 93.9746 76.088 94.3746 76.088 94.3746Z" fill="#A869C5"/>
<path d="M76.888 90.5748C76.888 90.5748 76.888 90.0748 76.988 89.4748C77.088 88.8748 77.188 88.3748 77.188 88.3748C77.188 88.3748 77.188 88.8748 77.088 89.4748C77.088 90.0748 76.988 90.5748 76.888 90.5748Z" fill="#A869C5"/>
<path d="M72.888 91.5747C72.888 91.5747 72.688 92.2747 72.288 93.1747C71.888 94.0747 71.588 94.6747 71.588 94.6747C71.588 94.6747 71.788 93.9747 72.188 93.0747C72.488 92.2747 72.788 91.5747 72.888 91.5747Z" fill="#A869C5"/>
<path d="M62.088 80.1748C62.088 80.1748 61.888 79.6748 61.888 79.0748C61.788 78.4748 61.788 77.8748 61.788 77.8748C61.788 77.8748 61.988 78.3748 61.988 78.9748C62.088 79.5748 62.088 80.1748 62.088 80.1748Z" fill="#A869C5"/>
<path d="M62.388 84.0748C62.388 84.0748 62.188 83.7748 62.088 83.3748C61.988 82.9748 62.088 82.6748 62.188 82.6748C62.188 82.6748 62.188 82.9748 62.288 83.3748C62.388 83.7748 62.488 84.0748 62.388 84.0748Z" fill="#A869C5"/>
<path d="M63.188 98.9748C63.188 98.9748 62.988 98.6748 62.888 98.1748C62.788 97.7748 62.688 97.3748 62.788 97.3748C62.788 97.3748 62.988 97.6748 63.088 98.1748C63.188 98.5748 63.188 98.9748 63.188 98.9748Z" fill="#A869C5"/>
<path d="M67.688 98.2747C67.688 98.2747 67.188 98.1747 66.588 97.9747C65.988 97.7747 65.488 97.5747 65.488 97.5747C65.488 97.5747 65.988 97.6747 66.588 97.8747C67.288 97.9747 67.788 98.1747 67.688 98.2747Z" fill="#A869C5"/>
<path d="M71.688 97.4746C71.688 97.4746 71.488 97.7746 71.088 98.0746C70.688 98.3746 70.388 98.5746 70.388 98.5746C70.388 98.5746 70.588 98.2746 70.988 97.9746C71.288 97.6746 71.588 97.4746 71.688 97.4746Z" fill="#A869C5"/>
<path d="M75.488 98.3747C75.488 98.3747 75.088 98.2747 74.588 98.0747C74.088 97.8747 73.688 97.7747 73.688 97.7747C73.688 97.7747 74.188 97.7747 74.688 97.9747C75.188 98.0747 75.488 98.3747 75.488 98.3747Z" fill="#A869C5"/>
<path d="M79.988 96.7747C79.988 96.7747 79.788 97.0747 79.588 97.3747C79.388 97.6747 79.188 97.9747 79.188 97.9747C79.188 97.9747 79.188 97.6747 79.488 97.2747C79.688 96.9747 79.988 96.7747 79.988 96.7747Z" fill="#A869C5"/>
<path d="M80.088 87.6747C80.088 87.6747 79.888 87.1747 79.888 86.6747C79.788 86.0747 79.788 85.5747 79.788 85.5747C79.788 85.5747 79.988 86.0747 79.988 86.5747C80.088 87.2747 80.188 87.6747 80.088 87.6747Z" fill="#A869C5"/>
<path d="M83.888 89.6747C83.888 89.6747 83.488 89.4747 83.088 89.1747C82.688 88.8747 82.388 88.5747 82.388 88.5747C82.388 88.5747 82.788 88.7747 83.188 89.0747C83.588 89.3747 83.888 89.6747 83.888 89.6747Z" fill="#A869C5"/>
<path d="M87.788 83.8749C87.788 83.8749 87.888 83.2749 88.088 82.5749C88.288 81.8749 88.588 81.2749 88.588 81.2749C88.588 81.2749 88.488 81.8749 88.288 82.5749C88.088 83.3749 87.888 83.8749 87.788 83.8749Z" fill="#A869C5"/>
<path d="M85.488 83.4749C85.488 83.4749 85.088 83.2749 84.688 82.9749C84.288 82.6749 83.988 82.3749 83.988 82.2749C83.988 82.2749 84.388 82.4749 84.788 82.7749C85.188 83.1749 85.588 83.4749 85.488 83.4749Z" fill="#A869C5"/>
<path d="M86.688 78.9749C86.688 78.9749 86.588 79.3749 86.388 79.8749C86.188 80.3749 85.988 80.6749 85.888 80.6749C85.888 80.6749 85.988 80.2749 86.188 79.7749C86.388 79.2749 86.588 78.8749 86.688 78.9749Z" fill="#A869C5"/>
<path d="M82.288 83.0748C82.288 83.0748 81.988 82.7748 81.788 82.2748C81.588 81.7748 81.488 81.3748 81.588 81.3748C81.588 81.3748 81.788 81.7748 81.988 82.1748C82.088 82.6748 82.288 83.0748 82.288 83.0748Z" fill="#A869C5"/>
<path d="M85.688 74.5747C85.688 74.5747 85.588 74.9747 85.188 75.2747C84.788 75.6747 84.488 75.7747 84.388 75.7747C84.388 75.7747 84.688 75.4747 84.988 75.1747C85.388 74.8747 85.688 74.5747 85.688 74.5747Z" fill="#A869C5"/>
<path d="M81.988 75.1748C81.988 75.1748 81.688 74.8748 81.388 74.4748C81.088 74.0748 80.988 73.7748 80.988 73.6748C80.988 73.6748 81.288 73.9748 81.588 74.3748C81.888 74.7748 81.988 75.0748 81.988 75.1748Z" fill="#A869C5"/>
<path d="M85.588 71.7748C85.588 71.7748 85.188 71.6748 84.788 71.3748C84.388 71.1748 84.088 70.8748 84.088 70.8748C84.088 70.8748 84.488 70.9748 84.888 71.2748C85.288 71.4748 85.588 71.6748 85.588 71.7748Z" fill="#A869C5"/>
<path d="M88.088 74.8748C88.088 74.8748 87.988 74.2748 88.088 73.4748C88.088 72.7748 88.188 72.1748 88.288 72.1748C88.288 72.1748 88.388 72.7748 88.288 73.5748C88.188 74.2748 88.088 74.8748 88.088 74.8748Z" fill="#A869C5"/>
<path d="M86.088 88.8747C86.088 88.8747 86.188 88.3747 86.388 87.6747C86.588 87.0747 86.888 86.5747 86.888 86.5747C86.888 86.5747 86.788 87.0747 86.588 87.7747C86.388 88.3747 86.188 88.8747 86.088 88.8747Z" fill="#A869C5"/>
<path d="M89.588 89.2747C89.588 89.2747 89.588 88.7747 89.788 88.1747C89.888 87.5747 90.088 87.0747 90.188 87.0747C90.188 87.0747 90.188 87.5747 89.988 88.1747C89.788 88.7747 89.588 89.2747 89.588 89.2747Z" fill="#A869C5"/>
<path d="M84.388 98.2747C84.388 98.2747 84.088 97.9747 83.888 97.4747C83.688 96.9747 83.788 96.5747 83.788 96.5747C83.888 96.5747 83.888 96.9747 84.088 97.4747C84.188 97.8747 84.388 98.1747 84.388 98.2747Z" fill="#A869C5"/>
<path d="M94.588 71.1748C94.588 71.1748 94.388 70.6748 94.488 69.9748C94.488 69.2748 94.688 68.7748 94.688 68.8748C94.688 68.8748 94.688 69.3748 94.688 70.0748C94.588 70.6748 94.588 71.1748 94.588 71.1748Z" fill="#A869C5"/>
<path d="M92.488 68.8746C92.488 68.8746 92.088 68.8746 91.588 68.7746C91.088 68.6746 90.788 68.4746 90.788 68.4746C90.788 68.4746 91.188 68.4746 91.688 68.5746C92.188 68.6746 92.488 68.7746 92.488 68.8746Z" fill="#A869C5"/>
<path d="M92.888 65.7748C92.888 65.7748 92.788 65.2748 92.788 64.5748C92.788 63.8748 92.888 63.3748 92.888 63.3748C92.888 63.3748 92.988 63.8748 92.988 64.5748C92.988 65.1748 92.888 65.7748 92.888 65.7748Z" fill="#A869C5"/>
<path d="M91.188 64.2747C91.188 64.2747 90.788 64.3747 90.188 64.2747C89.688 64.2747 89.188 64.1747 89.188 64.0747C89.188 64.0747 89.588 63.9747 90.188 64.0747C90.688 64.0747 91.188 64.1747 91.188 64.2747Z" fill="#A869C5"/>
<path d="M89.788 60.9748C89.788 60.9748 89.688 60.5748 89.588 60.0748C89.588 59.5748 89.588 59.1748 89.588 59.1748C89.588 59.1748 89.688 59.5748 89.788 60.0748C89.788 60.5748 89.788 60.9748 89.788 60.9748Z" fill="#A869C5"/>
<path d="M92.288 76.4749C92.288 76.4749 91.988 76.1749 91.588 75.6749C91.288 75.2749 90.988 74.8749 91.088 74.7749C91.088 74.7749 91.388 75.0749 91.788 75.5749C92.088 76.0749 92.388 76.4749 92.288 76.4749Z" fill="#A869C5"/>
<path d="M93.888 78.8748C93.888 78.8748 93.888 78.3748 93.888 77.8748C93.888 77.2748 93.988 76.8748 94.088 76.8748C94.088 76.8748 94.088 77.3748 94.088 77.8748C94.088 78.3748 93.988 78.8748 93.888 78.8748Z" fill="#A869C5"/>
<path d="M96.588 80.3748C96.588 80.3748 96.288 80.4748 95.788 80.5748C95.388 80.6748 94.988 80.6748 94.988 80.5748C94.988 80.5748 95.288 80.4748 95.788 80.3748C96.288 80.3748 96.588 80.3748 96.588 80.3748Z" fill="#A869C5"/>
<path d="M97.888 82.3747C97.888 82.3747 97.888 82.7747 97.688 83.1747C97.588 83.5747 97.388 83.9747 97.388 83.8747C97.388 83.8747 97.388 83.4747 97.588 83.0747C97.688 82.6747 97.888 82.2747 97.888 82.3747Z" fill="#A869C5"/>
<path d="M99.988 85.1748C99.988 85.1748 99.888 85.4748 99.788 85.8748C99.688 86.2748 99.788 86.5748 99.688 86.5748C99.688 86.5748 99.488 86.2748 99.588 85.8748C99.688 85.4748 99.888 85.1748 99.988 85.1748Z" fill="#A869C5"/>
<path d="M100.688 80.4748C100.688 80.5748 100.188 80.4748 99.588 80.5748C98.988 80.6748 98.588 80.7748 98.488 80.6748C98.488 80.6748 98.888 80.4748 99.488 80.3748C100.288 80.3748 100.688 80.3748 100.688 80.4748Z" fill="#A869C5"/>
<path d="M102.988 79.6749C102.988 79.6749 102.888 80.1749 102.888 80.7749C102.788 81.3749 102.788 81.8748 102.788 81.8748C102.788 81.8748 102.688 81.3749 102.688 80.7749C102.788 80.0749 102.888 79.5749 102.988 79.6749Z" fill="#A869C5"/>
<path d="M97.588 75.8749C97.588 75.8749 97.588 75.2749 97.588 74.5749C97.688 73.8749 97.788 73.2749 97.788 73.2749C97.788 73.2749 97.788 73.8749 97.788 74.5749C97.688 75.2749 97.588 75.8749 97.588 75.8749Z" fill="#A869C5"/>
<path d="M96.288 73.4747C96.288 73.4747 95.888 73.4747 95.388 73.3747C94.888 73.2747 94.488 73.1747 94.588 73.0747C94.588 73.0747 94.988 73.0747 95.488 73.1747C95.888 73.2747 96.288 73.3747 96.288 73.4747Z" fill="#A869C5"/>
<path d="M97.388 69.8748C97.388 69.8748 97.188 69.3748 97.088 68.7748C97.088 68.1748 97.188 67.6748 97.188 67.6748C97.288 67.6748 97.188 68.1748 97.188 68.7748C97.288 69.3748 97.488 69.8748 97.388 69.8748Z" fill="#A869C5"/>
<path d="M95.888 66.3748C95.888 66.3748 95.688 66.4748 95.388 66.3748C95.088 66.3748 94.888 66.2748 94.888 66.1748C94.888 66.1748 95.088 66.0748 95.388 66.1748C95.588 66.2748 95.888 66.2748 95.888 66.3748Z" fill="#A869C5"/>
<path d="M100.488 72.8748C100.488 72.8748 100.088 72.8748 99.688 72.6748C99.288 72.4748 99.088 72.1748 99.088 72.1748C99.088 72.1748 99.388 72.3748 99.788 72.5748C100.188 72.6748 100.488 72.7748 100.488 72.8748Z" fill="#A869C5"/>
<path d="M102.188 76.4747C102.188 76.4747 101.888 76.7747 101.388 76.9747C100.888 77.1747 100.588 77.3747 100.488 77.3747C100.488 77.3747 100.788 77.0747 101.288 76.8747C101.788 76.6747 102.088 76.3747 102.188 76.4747Z" fill="#A869C5"/>
<path d="M70.088 51.9747L70.388 49.0747L75.988 53.4747L77.388 55.7747L79.988 49.8747L80.588 50.6747V54.2747L77.788 57.5747L72.688 57.1747L70.088 51.9747Z" fill="#F9FAFD"/>
<path d="M78.988 61.0748C78.988 61.0748 78.888 60.9748 78.788 60.8748C78.788 60.7748 78.788 60.6748 78.788 60.6748C78.788 60.6748 78.888 60.7748 78.888 60.8748C79.088 60.9748 79.088 61.0748 78.988 61.0748Z" fill="#C7CDDD"/>
<path d="M79.488 64.4747C79.488 64.4747 79.388 64.3747 79.388 64.2747C79.388 64.1747 79.388 64.0747 79.488 64.0747C79.488 64.0747 79.588 64.1747 79.588 64.2747C79.588 64.3747 79.588 64.4747 79.488 64.4747Z" fill="#C7CDDD"/>
<path d="M68.388 35.6747C68.188 36.2747 67.988 36.8747 68.288 37.4747C68.488 38.0747 69.388 38.2747 69.788 37.7747C69.888 37.5747 69.888 37.2747 69.888 37.0747C69.888 35.4747 69.888 33.7747 69.888 32.1747C72.288 31.7747 74.288 29.8747 74.888 27.5747C76.088 28.3747 77.788 28.3747 79.088 27.6747C79.588 27.3747 80.188 26.9747 80.788 27.0747C81.488 27.1747 81.888 27.8747 82.488 28.3747C83.488 29.0747 85.188 28.6747 85.688 27.4747C86.188 26.2747 85.488 24.7747 84.388 24.1747C82.988 23.2747 81.188 23.4747 79.588 23.6747C76.588 24.0747 73.588 24.3747 70.588 24.7747C69.988 24.8747 69.388 24.8747 68.988 25.2747C68.488 25.6747 68.288 26.2747 68.088 26.7747C67.388 29.0747 67.088 31.3747 67.188 33.7747C67.188 34.4747 67.288 35.3747 67.988 35.6747" fill="#552E3B"/>
<path d="M94.688 100.275L103.488 78.2747L132.788 78.8746L124.588 99.6747L94.688 100.275Z" fill="#B8ABD6"/>
<path d="M104.788 78.2747L95.788 100.275L124.588 99.6747L132.788 78.8746L104.788 78.2747Z" fill="#968ABC"/>
<path d="M116.188 89.0749C116.988 88.2749 118.088 88.1749 118.788 88.7749C119.488 89.3749 119.288 90.5749 118.488 91.3749C117.688 92.1749 116.588 92.2749 115.888 91.6749C115.288 90.9749 115.388 89.8749 116.188 89.0749Z" fill="#D7D1E8"/>
<path opacity="0.19" d="M115.588 88.4748C116.788 87.2748 118.588 87.0749 119.588 88.0749C120.588 89.0749 120.388 90.8749 119.188 92.0749C117.988 93.2749 116.188 93.4748 115.188 92.4748C114.188 91.4748 114.388 89.6748 115.588 88.4748Z" fill="#D7D1E8"/>
<g opacity="0.43">
<path opacity="0.43" d="M43.288 23.4747C48.088 21.5747 54.088 24.0747 56.088 28.7747C58.088 33.4747 55.888 39.5747 51.288 41.7747C46.688 43.9747 40.488 41.9747 38.088 37.3747C35.688 32.8747 37.588 26.5747 41.988 24.0747" fill="#EDE6F5"/>
</g>
<defs>
<linearGradient id="paint0_linear" x1="71.0001" y1="-5" x2="71.0001" y2="137" gradientUnits="userSpaceOnUse">
<stop stop-color="#E2E3FF"/>
<stop offset="0.838542" stop-color="#E4E5FE" stop-opacity="0"/>
</linearGradient>
</defs>
</svg>
