<svg width="114" height="38" viewBox="0 0 114 38" fill="none" xmlns="http://www.w3.org/2000/svg">
<g filter="url(#filter0_d)">
<path d="M12.9892 12.9895C9.36825 11.4066 10.4983 6 14.4501 6H95C99.9706 6 104 10.0294 104 15C104 19.9706 99.9706 24 95 24H16.2109C13.2538 24 12.7001 19.7936 15.5564 19.0283C17.8666 18.4094 18.1063 15.2263 15.9149 14.2684L12.9892 12.9895Z" fill="#ED2B31"/>
</g>
<defs>
<filter id="filter0_d" x="0.797943" y="0" width="113.202" height="38" filterUnits="userSpaceOnUse" color-interpolation-filters="sRGB">
<feFlood flood-opacity="0" result="BackgroundImageFix"/>
<feColorMatrix in="SourceAlpha" type="matrix" values="0 0 0 0 0 0 0 0 0 0 0 0 0 0 0 0 0 0 127 0"/>
<feOffset dy="4"/>
<feGaussianBlur stdDeviation="5"/>
<feColorMatrix type="matrix" values="0 0 0 0 0.929412 0 0 0 0 0.168627 0 0 0 0 0.192157 0 0 0 0.25 0"/>
<feBlend mode="normal" in2="BackgroundImageFix" result="effect1_dropShadow"/>
<feBlend mode="normal" in="SourceGraphic" in2="effect1_dropShadow" result="shape"/>
</filter>
</defs>
</svg>
