<svg width="18" height="21" viewBox="0 0 18 21" fill="none" xmlns="http://www.w3.org/2000/svg">
<path d="M18 10.212L0.679493 0.194443L9.11769 10.212L0.679493 20.2296L18 10.212Z" fill="#FFD0D0"/>
</svg>
