<svg width="25" height="25" viewBox="0 0 25 25" fill="none" xmlns="http://www.w3.org/2000/svg">
<g clip-path="url(#clip0)">
<path d="M22.2559 6.57907H15.1562L18.2471 0.622036C18.3789 0.373013 18.2812 0.0653956 18.0273 -0.0664403C17.7783 -0.193393 17.4707 -0.10062 17.3389 0.148403L14.0039 6.57419H10.9863L7.65625 0.148403C7.52441 -0.10062 7.22168 -0.198276 6.96777 -0.0664403C6.71875 0.0653956 6.62109 0.36813 6.74805 0.622036L9.83887 6.57907H2.74414C1.52832 6.57907 0.537109 7.57028 0.537109 8.7861C0.537109 10.0019 1.52344 10.9931 2.73926 10.9931L4.75098 20.7246C4.7998 20.959 5.00977 21.1299 5.24902 21.1299H19.7461C19.9854 21.1299 20.1953 20.959 20.2441 20.7246L22.2607 10.9882C23.4766 10.9882 24.4629 9.99704 24.4629 8.78122C24.4629 7.5654 23.4717 6.57907 22.2559 6.57907ZM19.3359 20.1045H5.66406L3.7793 10.9882H21.2158L19.3359 20.1045ZM22.2559 9.96774H2.74414C2.08984 9.96774 1.55762 9.43551 1.55762 8.78122C1.55762 8.12692 2.08984 7.59469 2.74414 7.59469H22.2607C22.915 7.59469 23.4473 8.12692 23.4473 8.78122C23.4424 9.43551 22.9102 9.96774 22.2559 9.96774Z" fill="#121212"/>
<path d="M6.68946 14.4746H7.48047C7.76368 14.4746 7.98829 14.2451 7.98829 13.9668C7.98829 13.6885 7.7588 13.459 7.48047 13.459H6.68946C6.40625 13.459 6.18164 13.6885 6.18164 13.9668C6.18164 14.2451 6.41113 14.4746 6.68946 14.4746Z" fill="#ED2B31"/>
<path d="M10.1709 14.4746H10.9619C11.2451 14.4746 11.4697 14.2451 11.4697 13.9668C11.4697 13.6885 11.2402 13.459 10.9619 13.459H10.1709C9.8877 13.459 9.66309 13.6885 9.66309 13.9668C9.66309 14.2451 9.8877 14.4746 10.1709 14.4746Z" fill="#ED2B31"/>
<path d="M13.6475 14.4746H14.4385C14.7217 14.4746 14.9463 14.2451 14.9463 13.9668C14.9463 13.6885 14.7168 13.459 14.4385 13.459H13.6475C13.3643 13.459 13.1396 13.6885 13.1396 13.9668C13.1396 14.2451 13.3643 14.4746 13.6475 14.4746Z" fill="#ED2B31"/>
<path d="M17.124 14.4746H17.9199C18.2031 14.4746 18.4277 14.2451 18.4277 13.9668C18.4277 13.6885 18.1982 13.459 17.9199 13.459H17.1289C16.8457 13.459 16.6211 13.6885 16.6211 13.9668C16.6211 14.2451 16.8457 14.4746 17.124 14.4746Z" fill="#ED2B31"/>
<path d="M8.42773 17.6384H9.21875C9.50195 17.6384 9.72656 17.4089 9.72656 17.1306C9.72656 16.8474 9.49707 16.6228 9.21875 16.6228H8.42773C8.14453 16.6228 7.91992 16.8523 7.91992 17.1306C7.91992 17.4089 8.14941 17.6384 8.42773 17.6384Z" fill="#ED2B31"/>
<path d="M11.9092 17.6384H12.7002C12.9834 17.6384 13.208 17.4089 13.208 17.1306C13.208 16.8474 12.9785 16.6228 12.7002 16.6228H11.9092C11.626 16.6228 11.4014 16.8523 11.4014 17.1306C11.4014 17.4089 11.626 17.6384 11.9092 17.6384Z" fill="#ED2B31"/>
<path d="M15.3857 17.6384H16.1768C16.46 17.6384 16.6846 17.4089 16.6846 17.1306C16.6846 16.8474 16.4551 16.6228 16.1768 16.6228H15.3857C15.1025 16.6228 14.8779 16.8523 14.8779 17.1306C14.8779 17.4089 15.1074 17.6384 15.3857 17.6384Z" fill="#ED2B31"/>
</g>
<defs>
<clipPath id="clip0">
<rect width="25" height="25" fill="white"/>
</clipPath>
</defs>
</svg>
