<svg width="20" height="20" viewBox="0 0 20 20" fill="none" xmlns="http://www.w3.org/2000/svg">
<path d="M14.0625 18.75H12.8125V17.5H7.81249V18.75H6.56249C6.2175 18.75 5.93749 19.03 5.93749 19.375C5.93749 19.72 6.2175 20 6.56249 20H14.0625C14.4075 20 14.6875 19.72 14.6875 19.375C14.6875 19.03 14.4075 18.75 14.0625 18.75ZM0.3125 13.75C0.3125 15.1306 1.43188 16.25 2.81251 16.25H17.1875C18.5681 16.25 19.6875 15.1306 19.6875 13.75V12.5H0.3125V13.75ZM17.1875 0H2.81251C1.43188 0 0.3125 1.11938 0.3125 2.50001V11.25H19.6875V2.50001C19.6875 1.11938 18.5681 0 17.1875 0Z" fill="#ED2B31"/>
</svg>
