<svg width="7" height="5" viewBox="0 0 7 5" fill="none" xmlns="http://www.w3.org/2000/svg">
<path d="M5.58878 0.114105H1.41122C0.52074 0.114105 0.0743816 1.19037 0.703495 1.82059L2.79227 3.91304C3.18294 4.30439 3.81706 4.30439 4.20773 3.91304L6.2965 1.82059C6.92562 1.19037 6.47926 0.114105 5.58878 0.114105Z" fill="#ED2B31"/>
</svg>
