<svg width="25" height="25" viewBox="0 0 25 25" fill="none" xmlns="http://www.w3.org/2000/svg">
<circle cx="12.5" cy="12.5" r="12.5" transform="rotate(180 12.5 12.5)" fill="white"/>
<circle cx="12.5" cy="12.5" r="12.5" transform="rotate(180 12.5 12.5)" fill="white"/>
<path d="M14.7683 8.36297C15.077 8.05099 15.077 7.54586 14.7683 7.23388C14.46 6.92235 13.9592 6.92189 13.6505 7.23388L9.23144 11.7427C8.92269 12.0546 8.92269 12.5602 9.23144 12.8722L13.6505 17.381C13.9592 17.693 14.4595 17.693 14.7683 17.381C15.077 17.069 15.077 16.5639 14.7687 16.2519L11.1447 12.3076L14.7683 8.36297Z" fill="#FE8B17"/>
</svg>
