<svg width="15" height="10" viewBox="0 0 15 10" fill="none" xmlns="http://www.w3.org/2000/svg">
<path d="M1.92594 1.0767C1.48507 0.640395 0.771272 0.640395 0.330405 1.0767C-0.10981 1.51235 -0.110462 2.21995 0.330405 2.65625L6.70178 8.90079C7.14265 9.33709 7.8571 9.33709 8.29797 8.90079L14.6693 2.65625C15.1102 2.21995 15.1102 1.513 14.6693 1.0767C14.2285 0.640396 13.5147 0.640396 13.0738 1.07605L7.50004 6.19721L1.92594 1.0767Z" fill="#FF584D"/>
</svg>
