<svg width="218" height="60" viewBox="0 0 218 60" fill="none" xmlns="http://www.w3.org/2000/svg">
<g filter="url(#filter0_d)">
<path d="M14.9654 21.5525C7.01148 17.9104 9.60863 6 18.3568 6H188C199.046 6 208 14.9543 208 26C208 37.0457 199.046 46 188 46H21.9007C15.3561 46 14.0781 36.7169 20.3793 34.9485C25.4273 33.5318 25.9691 26.5909 21.202 24.4081L14.9654 21.5525Z" fill="#ED2B31"/>
</g>
<defs>
<filter id="filter0_d" x="0.199585" y="0" width="217.8" height="60" filterUnits="userSpaceOnUse" color-interpolation-filters="sRGB">
<feFlood flood-opacity="0" result="BackgroundImageFix"/>
<feColorMatrix in="SourceAlpha" type="matrix" values="0 0 0 0 0 0 0 0 0 0 0 0 0 0 0 0 0 0 127 0"/>
<feOffset dy="4"/>
<feGaussianBlur stdDeviation="5"/>
<feColorMatrix type="matrix" values="0 0 0 0 0.929412 0 0 0 0 0.168627 0 0 0 0 0.192157 0 0 0 0.25 0"/>
<feBlend mode="normal" in2="BackgroundImageFix" result="effect1_dropShadow"/>
<feBlend mode="normal" in="SourceGraphic" in2="effect1_dropShadow" result="shape"/>
</filter>
</defs>
</svg>
