<svg width="150" height="150" viewBox="0 0 150 150" fill="none" xmlns="http://www.w3.org/2000/svg">
<path d="M150 75C150 116.421 116.421 150 75 150C33.5789 150 0 116.421 0 75C0 33.5789 33.5789 0 75 0C116.413 0 150 33.5789 150 75Z" fill="#94CDAD"/>
<path d="M140.178 112.124C146.424 101.182 150 88.5053 150 75.0001C150 72.0995 149.831 69.245 149.509 66.4288L116.206 38.4592L80.149 109.761L36.9707 128.66L75.0002 149.992C75.0002 149.992 80.1106 150.138 87.2546 148.995C100.967 146.793 114.718 140.14 125.123 130.786L140.178 112.124Z" fill="#5C9971"/>
<path d="M115.823 112.231C115.823 112.231 112.4 118.907 116.214 126.419H37.362L36.9707 111.241L115.823 112.231Z" fill="#E7E6E6"/>
<path d="M115.654 113.014H36.9629V113.636H115.654V113.014Z" fill="#D0D1D1"/>
<path d="M115.654 114.25H36.9629V114.871H115.654V114.25Z" fill="#D0D1D1"/>
<path d="M115.654 116.106H36.9629V116.728H115.654V116.106Z" fill="#D0D1D1"/>
<path d="M115.654 117.963H36.9629V118.585H115.654V117.963Z" fill="#D0D1D1"/>
<path d="M115.654 119.199H36.9629V119.821H115.654V119.199Z" fill="#D0D1D1"/>
<path d="M115.654 120.434H36.9629V121.056H115.654V120.434Z" fill="#D0D1D1"/>
<path d="M115.654 122.291H36.9629V122.913H115.654V122.291Z" fill="#D0D1D1"/>
<path d="M115.654 124.148H36.9629V124.77H115.654V124.148Z" fill="#D0D1D1"/>
<path d="M38.0143 117.526C38.0143 116.92 38.0143 116.245 38.0143 115.516C38.0143 111.94 40.9148 112.231 40.9148 112.231H117.403V108.126H40.1244C38.5054 108.126 37.3773 108.594 36.5946 109.277H36.587C36.5179 109.339 36.4566 109.4 36.3875 109.461C36.3798 109.469 36.3721 109.477 36.3644 109.484C36.3261 109.523 36.2877 109.553 36.257 109.592C34.7991 111.073 29.1361 117.772 35.6508 127.248C36.3645 128.484 37.692 129.535 40.1168 129.535H117.396V125.43H40.9071C40.9071 125.43 38.0066 125.721 38.0066 122.146C38.0066 121.409 38.0066 120.734 38.0066 120.127C38.0142 120.112 38.0143 119.084 38.0143 117.526Z" fill="#EF0F44"/>
<path d="M33.7478 102.279L50.5449 108.364L80.1413 26.6727C80.1413 26.6727 73.4117 19.03 63.2905 20.7335L33.7478 102.279Z" fill="#FBAA3E"/>
<path d="M67.3497 52.2023L56.8218 48.3886L65.3162 24.9463L75.8442 28.76L67.3497 52.2023ZM58.4409 47.6289L66.59 50.5832L74.2174 29.5273L66.0759 26.5807L58.4409 47.6289Z" fill="#524938"/>
<path d="M42.2494 78.8354L40.7378 83.005L57.5315 89.0928L59.0431 84.9232L42.2494 78.8354Z" fill="#524938"/>
<path d="M40.1224 84.7596L38.6113 88.9296L55.4068 95.0159L56.9178 90.8458L40.1224 84.7596Z" fill="#524938"/>
<path opacity="0.4" d="M39.6639 104.619L33.7554 102.356L63.3057 20.7258C63.3057 20.7258 63.8121 20.557 66.3367 20.4803C67.6795 20.4419 69.6516 20.8179 69.6516 20.8179L39.6639 104.619Z" fill="url(#paint0_linear)"/>
<path d="M95.7722 108.118H75.3379V38.2979C75.3379 38.2979 85.5512 33.3026 95.7722 38.4514V108.118Z" fill="#961C45"/>
<path d="M95.7722 88.3518H75.3379V93.4239H95.7722V88.3518Z" fill="#600B2C"/>
<path d="M95.7722 95.603H75.3379V100.675H95.7722V95.603Z" fill="#600B2C"/>
<path d="M95.7722 44.8511H75.3379V49.9232H95.7722V44.8511Z" fill="#600B2C"/>
<path d="M95.7722 52.1025H75.3379V57.1747H95.7722V52.1025Z" fill="#600B2C"/>
<path opacity="0.4" d="M82.9345 108.119H75.3379V38.2981C75.3379 38.2981 75.6371 38.0142 78.9137 37.0397C80.4484 36.5793 82.9422 36.28 82.9422 36.28V108.119H82.9345Z" fill="url(#paint1_linear)"/>
<path d="M116.207 108.118H95.7722V38.2979C95.7722 38.2979 105.986 33.3026 116.207 38.4514V108.118Z" fill="#E3496F"/>
<path d="M111.61 44.8511H100.369V58.08H111.61V44.8511Z" fill="#AD274D"/>
<path opacity="0.4" d="M103.369 108.119H95.7646V38.2981C95.7646 38.2981 96.0639 38.0142 99.3404 37.0397C100.875 36.5793 103.369 36.28 103.369 36.28V108.119Z" fill="url(#paint2_linear)"/>
<defs>
<linearGradient id="paint0_linear" x1="35.9767" y1="103.212" x2="67.7619" y2="20.101" gradientUnits="userSpaceOnUse">
<stop stop-color="white"/>
<stop offset="1" stop-color="white"/>
</linearGradient>
<linearGradient id="paint1_linear" x1="79.1373" y1="108.122" x2="79.1373" y2="36.2844" gradientUnits="userSpaceOnUse">
<stop stop-color="white"/>
<stop offset="1" stop-color="white"/>
</linearGradient>
<linearGradient id="paint2_linear" x1="99.5716" y1="108.122" x2="99.5716" y2="36.2844" gradientUnits="userSpaceOnUse">
<stop stop-color="white"/>
<stop offset="1" stop-color="white"/>
</linearGradient>
</defs>
</svg>
