<svg width="25" height="25" viewBox="0 0 25 25" fill="none" xmlns="http://www.w3.org/2000/svg">
<circle cx="12.5" cy="12.5" r="12.5" fill="#E9E9E9"/>
<rect x="20" y="11" width="2.5" height="15" rx="1.25" transform="rotate(90 20 11)" fill="white"/>
</svg>
