<svg width="17" height="17" viewBox="0 0 17 17" fill="none" xmlns="http://www.w3.org/2000/svg">
<path d="M9.81916 0.419453C8.87887 -0.294917 7.57847 0.11576 7.52512 0.133015C7.39841 0.174428 7.31505 0.295215 7.31505 0.429807V3.39082C7.31505 4.39508 6.85491 5.24404 5.94463 5.917C5.24108 6.43811 4.52085 6.65207 4.51419 6.65552C4.50752 6.65552 4.50418 6.65897 4.49751 6.66243L4.32746 6.72109C4.22743 6.55199 4.05071 6.43811 3.84398 6.43811H0.893067C0.582971 6.43811 0.329559 6.70039 0.329559 7.02134L0.329559 15.3211C0.329559 15.6421 0.582971 15.9044 0.893067 15.9044H3.84731C4.11406 15.9044 4.33746 15.7111 4.39415 15.4557C4.79094 15.894 5.35445 16.1701 5.98131 16.1701H12.9768C14.4639 16.1701 15.4142 15.366 15.5809 13.9614L16.4746 8.08771C16.6046 7.2353 16.2678 6.37254 15.6143 5.88939C15.2442 5.6133 14.8074 5.46836 14.3506 5.46836H10.7128V2.72131C10.7128 1.64458 10.4127 0.871543 9.81916 0.419453ZM3.80397 15.2763H0.933079V7.06275H3.80397V15.2763ZM14.3506 6.093C14.6807 6.093 14.9941 6.19653 15.2608 6.39669C15.7277 6.74525 15.9711 7.36989 15.8744 7.99108L14.9841 13.8682C14.9841 13.8717 14.9841 13.8751 14.9841 13.8786C14.8207 15.2521 13.8037 15.542 12.9768 15.542H5.98131C5.11437 15.542 4.41082 14.8138 4.41082 13.9166V7.35264L4.68757 7.25601C4.78427 7.2284 5.52783 6.99373 6.2814 6.43811C7.35173 5.65126 7.91857 4.59869 7.91857 3.39427V0.681734C8.26535 0.612713 8.96223 0.543692 9.46572 0.926759C9.89252 1.25116 10.1092 1.8551 10.1092 2.72131V5.7824C10.1092 5.95496 10.246 6.09645 10.4127 6.09645H14.3506V6.093Z" fill="#B2B2B2"/>
</svg>
