<svg width="17" height="16" viewBox="0 0 17 16" fill="none" xmlns="http://www.w3.org/2000/svg">
<path d="M15.2847 5.96368C14.9146 5.69693 14.4778 5.55689 14.021 5.55689H10.3832V2.90273C10.3832 1.86241 10.0831 1.11551 9.4896 0.678707C8.54931 -0.0115068 7.24891 0.385283 7.19556 0.401955C7.06885 0.441967 6.98549 0.55867 6.98549 0.688711V3.5496C6.98549 4.5199 6.52535 5.34015 5.61507 5.99036C4.91152 6.49385 4.1913 6.70058 4.18463 6.70391C4.17796 6.70391 4.17462 6.70725 4.16795 6.71058L3.9979 6.76726C3.89787 6.60388 3.72115 6.49385 3.51442 6.49385H0.563507C0.253412 6.49385 0 6.74726 0 7.05735V15.0765C0 15.3866 0.253412 15.64 0.563507 15.64H3.51775C3.7845 15.64 4.00791 15.4533 4.06459 15.2065C4.46138 15.63 5.02489 15.8968 5.65175 15.8968H12.6472C14.1344 15.8968 15.0847 15.1199 15.2514 13.7628L16.145 8.08767C16.275 7.26408 15.9383 6.43049 15.2847 5.96368Z" fill="#ED2B31"/>
</svg>
