<svg width="21" height="21" viewBox="0 0 21 21" fill="none" xmlns="http://www.w3.org/2000/svg">
<path d="M7.9087 12.8731V9.20816C7.9087 9.05129 7.82803 8.90393 7.69991 8.81837C7.35351 8.58545 7.14473 8.20042 7.14473 7.78211V3.9793C7.14473 2.34885 8.46863 1.02738 10.0915 1.02738H10.9076C12.5352 1.02738 13.8544 2.3536 13.8544 3.9793V7.78211C13.8544 8.20042 13.6456 8.58545 13.2992 8.81837C13.1663 8.90393 13.0904 9.05129 13.0904 9.20816V12.8731C13.0904 13.1203 13.228 13.339 13.4463 13.4483C13.9256 13.6812 16.4405 14.9551 18.7562 16.8613C19.0741 17.1227 19.2544 17.5078 19.2544 17.9213V20.5263C19.2544 20.7877 19.4632 20.9969 19.7242 20.9969C19.9852 20.9969 20.1939 20.7877 20.1939 20.5263V17.9213C20.1939 17.2273 19.8855 16.5761 19.3541 16.134C17.157 14.3277 14.7939 13.0728 14.03 12.6877V9.44108C14.514 9.02753 14.7939 8.42383 14.7939 7.78211V3.9793C14.7939 1.83072 13.0477 0.0861816 10.9076 0.0861816H10.0915C7.94666 0.0861816 6.20518 1.83547 6.20518 3.9793V7.78211C6.20518 8.42383 6.48515 9.02753 6.96916 9.44108V12.6877C6.20518 13.0728 3.84209 14.3277 1.64507 16.134C1.10887 16.5713 0.805176 17.2226 0.805176 17.9213V20.5263C0.805176 20.7877 1.01396 20.9969 1.27495 20.9969C1.53593 20.9969 1.74472 20.7877 1.74472 20.5263V17.9213C1.74472 17.5078 1.92504 17.1227 2.24296 16.8613C4.55861 14.9551 7.07355 13.686 7.55281 13.4483C7.77109 13.339 7.9087 13.1203 7.9087 12.8731Z" fill="#121212"/>
</svg>
